…
           .names = "{.col}_50"), # name columns with "_50"
    .groups = "drop"
  )
# find the minimum Euclidean distance stations
state_med_stations_lz <- met_avg_lz |>
  left_join(state_med_lz, by = "STATE") |>
  collect() |> rowwise() |> # to sum() row wise
  mutate(d = udist(c(temp, wind.sp, atm.press), 
                   c(temp_50, wind.sp_50, atm.press_50))) |>
  group_by(STATE) |>
  slice_min(d) # find the minimum d row
state_med_stations_lz
```

    ## # A tibble: 46 × 11
    ## # Groups:   STATE [46]
    ##    USAFID STATE  temp wind.sp atm.press    lon   lat temp_50 wind.sp_50 atm.pr…¹
    ##     <int> <chr> <dbl>   <dbl>     <dbl>  <dbl> <dbl>   <dbl>      <dbl>    <dbl>
    ##  1 722286 AL     26.4    1.68     1015.  -87.6  33.2    26.3       1.66    1015.
    ##  2 723407 AR     25.9    2.21     1015.  -90.6  35.8    26.2       1.94    1015.
    ##  3 722745 AZ     30.3    3.31     1010. -111.   32.2    30.3       3.07    1010.
    ##  4 722970 CA     22.8    2.33     1013. -118.   33.8    22.7       2.57    1013.
    ##  5 724767 CO     22.0    2.78     1014. -109.   37.3    21.5       3.10    1013.
    ##  6 725087 CT     22.6    2.13     1015.  -72.7  41.7    22.4       2.10    1015.
    ##  7 724180 DE     24.6    2.75     1015.  -75.6  39.7    24.6       2.75    1015.
    ##  8 722106 FL     27.5    2.71     1015.  -81.9  26.6    27.6       2.71    1015.
    ##  9 723160 GA     26.6    1.68     1015.  -82.5  31.5    26.7       1.50    1015.
    ## 10 725480 IA     21.4    2.76     1015.  -92.4  42.6    21.3       2.68    1015.
    ## # … with 36 more rows, 1 more variable: d <dbl>, and abbreviated variable name
    ## #   ¹​atm.press_50
…
``` r
# find the minimum Euclidean distance stations
state_med_stations_lz_handle_missing <- met_avg_lz |>
  left_join(state_med_lz, by = "STATE") |>
  collect() |> rowwise() |> # to sum() row wise
  mutate(d = udist_handle_missing(
    c(temp, wind.sp, atm.press), 
    c(temp_50, wind.sp_50, atm.press_50))) |>
  group_by(STATE) |>
  slice_min(d) # find the minimum d row
state_med_stations_lz_handle_missing
```

    ## # A tibble: 48 × 11
    ## # Groups:   STATE [48]
    ##    USAFID STATE  temp wind.sp atm.press    lon   lat temp_50 wind.sp_50 atm.pr…¹
    ##     <int> <chr> <dbl>   <dbl>     <dbl>  <dbl> <dbl>   <dbl>      <dbl>    <dbl>
    ##  1 722286 AL     26.4    1.68     1015.  -87.6  33.2    26.3       1.66    1015.
    ##  2 723407 AR     25.9    2.21     1015.  -90.6  35.8    26.2       1.94    1015.
    ##  3 722745 AZ     30.3    3.31     1010. -111.   32.2    30.3       3.07    1010.
    ##  4 722970 CA     22.8    2.33     1013. -118.   33.8    22.7       2.57    1013.
    ##  5 724767 CO     22.0    2.78     1014. -109.   37.3    21.5       3.10    1013.
    ##  6 725087 CT     22.6    2.13     1015.  -72.7  41.7    22.4       2.10    1015.
    ##  7 724180 DE     24.6    2.75     1015.  -75.6  39.7    24.6       2.75    1015.
    ##  8 722106 FL     27.5    2.71     1015.  -81.9  26.6    27.6       2.71    1015.
    ##  9 723160 GA     26.6    1.68     1015.  -82.5  31.5    26.7       1.50    1015.
    ## 10 725480 IA     21.4    2.76     1015.  -92.4  42.6    21.3       2.68    1015.
    ## # … with 38 more rows, 1 more variable: d <dbl>, and abbreviated variable name
    ## #   ¹​atm.press_50
…
